Celaya_package
…
2.5 To summarize volume of tree, use the vol_summarise function:

data("exfm7")
View(exfm7)

# In order to calculate the volume of each tree, first we calculate the volume by tree section using the Smalian method:
sec_data_vol <- exfm7 %>%
smalianwb("di_wb", "hi", "TREE") %>%
smalianwob("di_wb", "hi", "bark_t", "TREE", bt_mm_to_cm = TRUE)
sec_data_vol

# A tibble: 3,393 × 16
   MAP     PROJECT SPACING STRATA GENCODE  TREE   DBH    TH    hi di_wb bark_t
   <chr>   <fct>   <fct>    <int> <fct>   <int> <dbl> <dbl> <dbl> <dbl>  <dbl>
 1 FOREST1 PEQUI   3x3          4 FM00100     1  12.4  22.1   0.1 13.1     0.6
 2 FOREST1 PEQUI   3x3          4 FM00100     1  12.4  22.1   0.5 12.6     0.6
 3 FOREST1 PEQUI   3x3          4 FM00100     1  12.4  22.1   1   12.4     0.5
 4 FOREST1 PEQUI   3x3          4 FM00100     1  12.4  22.1   1.5 12.3     0.5
 5 FOREST1 PEQUI   3x3          4 FM00100     1  12.4  22.1   2   11.8     0.4
 6 FOREST1 PEQUI   3x3          4 FM00100     1  12.4  22.1   4   11.3     0.4
 7 FOREST1 PEQUI   3x3          4 FM00100     1  12.4  22.1   6   10.5     0.3
 8 FOREST1 PEQUI   3x3          4 FM00100     1  12.4  22.1   8    9.55    0.3
 9 FOREST1 PEQUI   3x3          4 FM00100     1  12.4  22.1  10    8.59    0.3
10 FOREST1 PEQUI   3x3          4 FM00100     1  12.4  22.1  12    8.12    0.3
# ℹ 3,383 more rows
# ℹ 5 more variables: CSA_WB <dbl>, VWB <dbl>, di_wob <dbl>, CSA_WOB <dbl>,
#   VWOB <dbl>

# Now, we summarize the tree's volume:
vol_summarise(sec_data_vol, dbh = "DBH", th = "TH", vwb = "VWB",
tree = "TREE", .groups = "STRATA",vwob = "VWOB")

# A tibble: 197 × 11
   STRATA  TREE   DBH    TH    CSA   VWB  VWOB  FFWB FFWOB FFWB_mean FFWOB_mean
    <int> <int> <dbl> <dbl>  <dbl> <dbl> <dbl> <dbl> <dbl>     <dbl>      <dbl>
 1      2   113  12.3  23.0 0.0118 0.138 0.114 0.510 0.419     0.484      0.424
 2      2   114  12.6  22.8 0.0124 0.142 0.120 0.502 0.425     0.484      0.424
 3      2   115  12.9  23.5 0.0131 0.147 0.128 0.478 0.416     0.484      0.424
 4      2   116  13.2  22.9 0.0137 0.151 0.128 0.480 0.408     0.484      0.424
 5      2   117  13.4  23.5 0.0140 0.159 0.138 0.482 0.419     0.484      0.424
 6      2   118  13.5  22.6 0.0144 0.156 0.133 0.480 0.408     0.484      0.424
 7      2   119  13.8  23.5 0.0151 0.157 0.134 0.444 0.378     0.484      0.424
 8      2   120  14.6  25.1 0.0168 0.188 0.161 0.445 0.382     0.484      0.424
 9      2   121  15.3  25.8 0.0183 0.223 0.194 0.470 0.410     0.484      0.424
10      2   122  15.3  24.5 0.0183 0.203 0.180 0.452 0.399     0.484      0.424
# ℹ 187 more rows
…
# By default, the function returns all indexes:
species_diversity(exfm20, #data frame
                  "scientific.name") #Quoted name of the scientific names variable, or any variable used to differentiate the different species found in data

# A tibble: 1 × 5
  Shannon Simpson EqMaxima Pielou Jentsch
    <dbl>   <dbl>    <dbl>  <dbl>   <dbl>
1     3.9    0.95     5.15   0.76    0.01

# It's possible to use a subdivision variable, like plot, to get
# the indexes for each subdivision:
species_diversity(exfm20, "scientific.name", "transect")

# A tibble: 22 × 6
   transect Shannon Simpson EqMaxima Pielou Jentsch
   <chr>      <dbl>   <dbl>    <dbl>  <dbl>   <dbl>
 1 T01         3.06    0.94     3.71   0.82    0.08
 2 T02         3.46    0.96     4.06   0.85    0.09
 3 T03         3.2     0.95     3.85   0.83    0.13
 4 T04         3.06    0.93     3.85   0.79    0.08
 5 T05         3.32    0.95     3.91   0.85    0.08
 6 T06         3.12    0.94     3.78   0.83    0.08
 7 T07         2.57    0.82     3.99   0.64    0.1 
 8 T08         3.02    0.92     3.87   0.78    0.1 
 9 T09         3.16    0.94     3.87   0.82    0.1 
10 T10         2.9     0.9      3.83   0.76    0.09
# ℹ 12 more rows
…
# Get the forest's horizontal structure:
forest_structure(exfm20, #data frame
                 "scientific.name", #Quoted name of the scientific names variable
                 "dbh", #Quoted name of the diameter at breast height variable, in cm.
                 "transect", #Quoted name of the plot variable
                 10000) #Quoted name of the plot area variable, or a numeric vector with the plot area value. The plot area value must be in square meters

# A tibble: 172 × 9
   especie                  AF     RF     AD     DR     ADo    RDo    IVC    IVI
   <fct>                 <dbl>  <dbl>  <dbl>  <dbl> <dbl[1> <dbl[>  <dbl>  <dbl>
 1 Abarema cochleata     18.2  0.392  0.182  0.0343 0.0359  0.137  0.0859 0.188 
 2 Abarema jupunba       13.6  0.294  0.136  0.0258 0.0302  0.116  0.0707 0.145 
 3 Abuta grandifolia      9.09 0.196  1.36   0.258  0.0162  0.0621 0.160  0.172 
 4 Aiouea sp.             9.09 0.196  0.909  0.172  0.0413  0.158  0.165  0.175 
 5 Ambelania acida        4.55 0.0979 0.454  0.0859 0.00379 0.0145 0.0502 0.0661
 6 Anacardium spruceanum 27.3  0.588  1.23   0.232  0.159   0.608  0.420  0.476 
 7 Aniba canelilla        9.09 0.196  0.5    0.0945 0.0103  0.0396 0.0670 0.110 
 8 Aniba parviflora       4.55 0.0979 0.454  0.0859 0.00480 0.0184 0.0521 0.0674
 9 Annona ambotay         4.55 0.0979 0.0455 0.0086 0.00455 0.0174 0.0130 0.0413
10 Annona sp.            13.6  0.294  1.36   0.258  0.0114  0.0439 0.151  0.198 
# ℹ 162 more rows

# area plot as a variable name:
forest_structure(exfm20, "scientific.name", "dbh", "transect", "plot.area")

# A tibble: 172 × 9
   especie                  AF     RF     AD     DR     ADo    RDo    IVC    IVI
   <fct>                 <dbl>  <dbl>  <dbl>  <dbl> <dbl[1> <dbl[>  <dbl>  <dbl>
 1 Abarema cochleata     18.2  0.392  0.182  0.0343 0.0359  0.137  0.0859 0.188 
 2 Abarema jupunba       13.6  0.294  0.136  0.0258 0.0302  0.116  0.0707 0.145 
 3 Abuta grandifolia      9.09 0.196  1.36   0.258  0.0162  0.0621 0.160  0.172 
 4 Aiouea sp.             9.09 0.196  0.909  0.172  0.0413  0.158  0.165  0.175 
 5 Ambelania acida        4.55 0.0979 0.454  0.0859 0.00379 0.0145 0.0502 0.0661
 6 Anacardium spruceanum 27.3  0.588  1.23   0.232  0.159   0.608  0.420  0.476 
 7 Aniba canelilla        9.09 0.196  0.5    0.0945 0.0103  0.0396 0.0670 0.110 
 8 Aniba parviflora       4.55 0.0979 0.454  0.0859 0.00480 0.0184 0.0521 0.0674
 9 Annona ambotay         4.55 0.0979 0.0455 0.0086 0.00455 0.0174 0.0130 0.0413
10 Annona sp.            13.6  0.294  1.36   0.258  0.0114  0.0439 0.151  0.198 
# ℹ 162 more rows

# Get the forest's horizontal and vertical structure.
# The vertical structure variable can either be the height variable,or a factor variable with the horizontal strata:
forest_structure(exfm20, "scientific.name", "dbh", "transect", 10000, "canopy.pos")

# A tibble: 172 × 14
   especie      AF     RF     AD     DR     ADo    RDo    IVC    IVI   VFC   VFE
   <fct>     <dbl>  <dbl>  <dbl>  <dbl> <dbl[1> <dbl[>  <dbl>  <dbl> <dbl> <dbl>
 1 Abarema … 18.2  0.392  0.182  0.0343 0.0359  0.137  0.0859 0.188   51.2   0  
 2 Abarema … 13.6  0.294  0.136  0.0258 0.0302  0.116  0.0707 0.145   25.6   0  
 3 Abuta gr…  9.09 0.196  1.36   0.258  0.0162  0.0621 0.160  0.172    0     0  
 4 Aiouea s…  9.09 0.196  0.909  0.172  0.0413  0.158  0.165  0.175    0     0  
 5 Ambelani…  4.55 0.0979 0.454  0.0859 0.00379 0.0145 0.0502 0.0661   0     0  
 6 Anacardi… 27.3  0.588  1.23   0.232  0.159   0.608  0.420  0.476   38.4  13.4
 7 Aniba ca…  9.09 0.196  0.5    0.0945 0.0103  0.0396 0.0670 0.110   12.8   0  
 8 Aniba pa…  4.55 0.0979 0.454  0.0859 0.00480 0.0184 0.0521 0.0674   0     0  
 9 Annona a…  4.55 0.0979 0.0455 0.0086 0.00455 0.0174 0.0130 0.0413  12.8   0  
10 Annona s… 13.6  0.294  1.36   0.258  0.0114  0.0439 0.151  0.198    0     0  
# ℹ 162 more rows
# ℹ 3 more variables: VFS <dbl>, PSA <dbl>, PSR <dbl>

# Get the forest's horizontal, vertical and internal structure:
forest_structure(exfm20, "scientific.name", "dbh", "transect", 10000, "canopy.pos", "light")

# A tibble: 172 × 19
   especie      AF     RF     AD     DR     ADo    RDo    IVC    IVI   VFC   VFE
   <fct>     <dbl>  <dbl>  <dbl>  <dbl> <dbl[1> <dbl[>  <dbl>  <dbl> <dbl> <dbl>
 1 Abarema … 18.2  0.392  0.182  0.0343 0.0359  0.137  0.0859 0.188   51.2   0  
 2 Abarema … 13.6  0.294  0.136  0.0258 0.0302  0.116  0.0707 0.145   25.6   0  
 3 Abuta gr…  9.09 0.196  1.36   0.258  0.0162  0.0621 0.160  0.172    0     0  
 4 Aiouea s…  9.09 0.196  0.909  0.172  0.0413  0.158  0.165  0.175    0     0  
 5 Ambelani…  4.55 0.0979 0.454  0.0859 0.00379 0.0145 0.0502 0.0661   0     0  
 6 Anacardi… 27.3  0.588  1.23   0.232  0.159   0.608  0.420  0.476   38.4  13.4
 7 Aniba ca…  9.09 0.196  0.5    0.0945 0.0103  0.0396 0.0670 0.110   12.8   0  
 8 Aniba pa…  4.55 0.0979 0.454  0.0859 0.00480 0.0184 0.0521 0.0674   0     0  
 9 Annona a…  4.55 0.0979 0.0455 0.0086 0.00455 0.0174 0.0130 0.0413  12.8   0  
10 Annona s… 13.6  0.294  1.36   0.258  0.0114  0.0439 0.151  0.198    0     0  
# ℹ 162 more rows
# ℹ 8 more variables: VFS <dbl>, PSA <dbl>, PSR <dbl>, QF1 <dbl>, QF2 <dbl>,
#   QF3 <dbl>, QAF <dbl>, QRF <dbl>
…
# If the data supplied only has 2 levels, a paired comparison is made instead:
ex_pair <- exfm20[exfm20$transect %in% c("T01", "T02") , ]
ex_pair

# A tibble: 1,199 × 18
   cod     transect  tree common.name scientific.name    family   dbh canopy.pos
   <fct>   <fct>    <int> <fct>       <fct>              <fct>  <dbl> <fct>     
 1 CAU_A01 T01          2 macucu      Licania guianensis Chrys…  10.3 S         
 2 CAU_A01 T01          5 casca seca  Licania canescens  Chrys…  14.6 S         
 3 CAU_A01 T01          6 cajuacu     Anacardium spruce… Anaca…  78.8 E         
 4 CAU_A01 T01          7 breu branco Protium paniculat… Burse…  14.7 S         
 5 CAU_A01 T01          9 breu branco Protium paniculat… Burse…  10.6 E         
 6 CAU_A01 T01         10 caramuxi    Pouteria hispida   Sapot…  27.1 C         
 7 CAU_A01 T01         12 casca seca  Licania canescens  Chrys…  15.1 E         
 8 CAU_A01 T01         13 jatereu     Lecythis idatimon  Lecyt…  16.5 S         
 9 CAU_A01 T01         14 jatereu     Lecythis idatimon  Lecyt…  12   S         
10 CAU_A01 T01         15 parajuba    Manilkara bidenta… Sapot…  38.4 C         
# ℹ 1,189 more rows
# ℹ 10 more variables: light <int>, dead <lgl>, Hcom <dbl>, Htot <dbl>,
#   date <int>, utm.east <dbl>, utm.north <dbl>, vol <dbl>, plot.area <int>,
#   total.area <int>
…
# Get the aggregation indexes of species:
species_aggreg(exfm20, "scientific.name", "transect")

# A tibble: 172 × 7
   especie               Payandeh Pay.res    Hazen Haz.res      Morisita Mor.res
   <fct>                    <dbl> <chr>      <dbl> <chr>           <dbl> <chr>  
 1 Abarema cochleata          0.9 Regular      18  Not aggrega…      0   Rare   
 2 Abarema jupunba            0.9 Regular      19  Not aggrega…      0   Rare   
 3 Abuta grandifolia         16   Aggregated  337. Aggregated       11.9 Aggreg…
 4 Aiouea sp.                 9.5 Aggregated  200  Aggregated       10.4 Aggreg…
 5 Ambelania acida           10   Aggregated  210  Aggregated       22   Aggreg…
 6 Anacardium spruceanum      9.3 Aggregated  195. Aggregated        7.7 Aggreg…
 7 Aniba canelilla            9.1 Aggregated  191  Aggregated       18   Aggreg…
 8 Aniba parviflora          10   Aggregated  210  Aggregated       22   Aggreg…
 9 Annona ambotay             1   Random       21  Not aggrega…      0   Rare   
10 Annona sp.                 9   Aggregated  190  Aggregated        6.8 Aggreg…
# ℹ 162 more rows
…
